{
  "nextUpdate": 10800,
  "subscriptions": [
    "tns",
    "xtraSpeed",
    "xtraRLH"
  ],
  "title": "Xtra SpeedOn",
  "hasOffers": true,
  "passName": "Prepaid Aktionsvorteil",
  "passStage": 1,
  "validityPeriod": 4,
  "initialVolume": 2147483648,
  "initialVolumeStr": "2 GB",
  "usedVolume": 402704373,
  "usedPercentage": 19,
  "usedVolumeStr": "384,04 MB",
  "usedAt": 1659540330000,
  "remainingSeconds": 2095623,
  "passType": 103
}

